%YAML 1.1
%TAG !u! tag:unity3d.com,2011:
--- !u!74 &7400000
AnimationClip:
  m_ObjectHideFlags: 0
  m_CorrespondingSourceObject: {fileID: 0}
  m_PrefabInstance: {fileID: 0}
  m_PrefabAsset: {fileID: 0}
  m_Name: Zombie
  serializedVersion: 6
  m_Legacy: 0
  m_Compressed: 0
  m_UseHighQualityCurve: 1
  m_RotationCurves: []
  m_CompressedRotationCurves: []
  m_EulerCurves: []
  m_PositionCurves: []
  m_ScaleCurves: []
  m_FloatCurves: []
  m_PPtrCurves:
  - curve:
    - time: 0
      value: {fileID: 21300000, guid: 66bc56abe8147f5409f5c948d65a9500, type: 3}
    - time: 0.083333336
      value: {fileID: 21300000, guid: 9589375350e273249bbfe8cd82dda8e7, type: 3}
    - time: 0.16666667
      value: {fileID: 21300000, guid: 1dfd13a5c2ee53a4db62200f13378164, type: 3}
    - time: 0.25
      value: {fileID: 21300000, guid: 1cd87d7726ed87c41a16dd5303c1b484, type: 3}
    - time: 0.33333334
      value: {fileID: 21300000, guid: 11ad4d68e0b122b408608783d4ea9e71, type: 3}
    - time: 0.41666666
      value: {fileID: 21300000, guid: 80d9f47246a37214f836b8945f72d3e3, type: 3}
    - time: 0.5
      value: {fileID: 21300000, guid: f12e2f74803de294eb2225f423f2978d, type: 3}
    - time: 0.5833333
      value: {fileID: 21300000, guid: de09087a57ccae54d945583b40178251, type: 3}
    - time: 0.6666667
      value: {fileID: 21300000, guid: 2f391b1778513fa4d9ae3f6c8a4f25e3, type: 3}
    - time: 0.75
      value: {fileID: 21300000, guid: 0deb33aa9f9e62d4d99a918be2f9e1ba, type: 3}
    - time: 0.8333333
      value: {fileID: 21300000, guid: 24046ca0973a7fb4e83edd047bf341fb, type: 3}
    - time: 0.9166667
      value: {fileID: 21300000, guid: 385613fbd7b5ef64bb33d006d02f7737, type: 3}
    - time: 1
      value: {fileID: 21300000, guid: b54b2209cf7491b43ba10ed984703730, type: 3}
    - time: 1.0833334
      value: {fileID: 21300000, guid: 93cd58a770d235542aa85c8897274475, type: 3}
    - time: 1.1666666
      value: {fileID: 21300000, guid: ea888e1a7aec92b4297dc2402d3ec69a, type: 3}
    attribute: m_Sprite
    path: 
    classID: 212
    script: {fileID: 0}
  m_SampleRate: 12
  m_WrapMode: 0
  m_Bounds:
    m_Center: {x: 0, y: 0, z: 0}
    m_Extent: {x: 0, y: 0, z: 0}
  m_ClipBindingConstant:
    genericBindings:
    - serializedVersion: 2
      path: 0
      attribute: 0
      script: {fileID: 0}
      typeID: 212
      customType: 23
      isPPtrCurve: 1
    pptrCurveMapping:
    - {fileID: 21300000, guid: 66bc56abe8147f5409f5c948d65a9500, type: 3}
    - {fileID: 21300000, guid: 9589375350e273249bbfe8cd82dda8e7, type: 3}
    - {fileID: 21300000, guid: 1dfd13a5c2ee53a4db62200f13378164, type: 3}
    - {fileID: 21300000, guid: 1cd87d7726ed87c41a16dd5303c1b484, type: 3}
    - {fileID: 21300000, guid: 11ad4d68e0b122b408608783d4ea9e71, type: 3}
    - {fileID: 21300000, guid: 80d9f47246a37214f836b8945f72d3e3, type: 3}
    - {fileID: 21300000, guid: f12e2f74803de294eb2225f423f2978d, type: 3}
    - {fileID: 21300000, guid: de09087a57ccae54d945583b40178251, type: 3}
    - {fileID: 21300000, guid: 2f391b1778513fa4d9ae3f6c8a4f25e3, type: 3}
    - {fileID: 21300000, guid: 0deb33aa9f9e62d4d99a918be2f9e1ba, type: 3}
    - {fileID: 21300000, guid: 24046ca0973a7fb4e83edd047bf341fb, type: 3}
    - {fileID: 21300000, guid: 385613fbd7b5ef64bb33d006d02f7737, type: 3}
    - {fileID: 21300000, guid: b54b2209cf7491b43ba10ed984703730, type: 3}
    - {fileID: 21300000, guid: 93cd58a770d235542aa85c8897274475, type: 3}
    - {fileID: 21300000, guid: ea888e1a7aec92b4297dc2402d3ec69a, type: 3}
  m_AnimationClipSettings:
    serializedVersion: 2
    m_AdditiveReferencePoseClip: {fileID: 0}
    m_AdditiveReferencePoseTime: 0
    m_StartTime: 0
    m_StopTime: 1.25
    m_OrientationOffsetY: 0
    m_Level: 0
    m_CycleOffset: 0
    m_HasAdditiveReferencePose: 0
    m_LoopTime: 1
    m_LoopBlend: 0
    m_LoopBlendOrientation: 0
    m_LoopBlendPositionY: 0
    m_LoopBlendPositionXZ: 0
    m_KeepOriginalOrientation: 0
    m_KeepOriginalPositionY: 1
    m_KeepOriginalPositionXZ: 0
    m_HeightFromFeet: 0
    m_Mirror: 0
  m_EditorCurves: []
  m_EulerEditorCurves: []
  m_HasGenericRootTransform: 0
  m_HasMotionFloatCurves: 0
  m_Events: []
